%YAML 1.1
%TAG !u! tag:unity3d.com,2011:
--- !u!114 &11400000
MonoBehaviour:
  m_ObjectHideFlags: 0
  m_CorrespondingSourceObject: {fileID: 0}
  m_PrefabInstance: {fileID: 0}
  m_PrefabAsset: {fileID: 0}
  m_GameObject: {fileID: 0}
  m_Enabled: 1
  m_EditorHideFlags: 0
  m_Script: {fileID: 11500000, guid: 484387fc4da650e4a83d136320ee306e, type: 3}
  m_Name: PopupsCatalog
  m_EditorClassIdentifier: 
  popups:
  - {fileID: 3030175865294219245, guid: 72b8ff1367225c842aa2a8a089d3e26c, type: 3}
  - {fileID: 111491818057290607, guid: 6336bcdeb3669044a8d85326a450df0d, type: 3}
  - {fileID: 111491818057290607, guid: e40486b9be602fc4193bef7b9f3238da, type: 3}
  - {fileID: 111491818057290607, guid: 57566bed6b82843439417ffe803344a0, type: 3}
