%YAML 1.1
%TAG !u! tag:unity3d.com,2011:
--- !u!114 &11400000
MonoBehaviour:
  m_ObjectHideFlags: 0
  m_CorrespondingSourceObject: {fileID: 0}
  m_PrefabInstance: {fileID: 0}
  m_PrefabAsset: {fileID: 0}
  m_GameObject: {fileID: 0}
  m_Enabled: 1
  m_EditorHideFlags: 0
  m_Script: {fileID: 11500000, guid: e6d03e1ecc03c9d46b378e64ae2534b2, type: 3}
  m_Name: CloseUpgradeStep
  m_EditorClassIdentifier: 
  text: "\u041D\u0430\u0436\u043C\u0438\u0442\u0435 \u043D\u0430 \u043A\u0440\u0435\u0441\u0442\u0438\u043A"
  sprite: {fileID: 0}
