%YAML 1.1
%TAG !u! tag:unity3d.com,2011:
--- !u!114 &11400000
MonoBehaviour:
  m_ObjectHideFlags: 0
  m_CorrespondingSourceObject: {fileID: 0}
  m_PrefabInstance: {fileID: 0}
  m_PrefabAsset: {fileID: 0}
  m_GameObject: {fileID: 0}
  m_Enabled: 1
  m_EditorHideFlags: 0
  m_Script: {fileID: 11500000, guid: e6d03e1ecc03c9d46b378e64ae2534b2, type: 3}
  m_Name: ConfigMoveToPoint
  m_EditorClassIdentifier: 
  text: "\u0418\u0441\u043F\u043E\u043B\u044C\u0437\u0443\u0439\u0442\u0435 \u0441\u0442\u0440\u0435\u043B\u043A\u0438
    \u043D\u0430 \u043A\u043B\u0430\u0432\u0438\u0430\u0442\u0443\u0440\u0435, \u0447\u0442\u043E\u0431\u044B
    \u043F\u0440\u0438\u0432\u0435\u0441\u0442\u0438 \u043F\u0435\u0440\u0441\u043E\u043D\u0430\u0436\u0430
    \u043A \u0443\u043A\u0430\u0437\u0430\u0442\u0435\u043B\u044E"
  sprite: {fileID: 0}
